<?xml version="1.0" encoding="UTF-8" standalone="no"?>
<svg
   xmlns:dc="http://purl.org/dc/elements/1.1/"
   xmlns:cc="http://creativecommons.org/ns#"
   xmlns:rdf="http://www.w3.org/1999/02/22-rdf-syntax-ns#"
   xmlns:svg="http://www.w3.org/2000/svg"
   xmlns="http://www.w3.org/2000/svg"
   xmlns:sodipodi="http://sodipodi.sourceforge.net/DTD/sodipodi-0.dtd"
   xmlns:inkscape="http://www.inkscape.org/namespaces/inkscape"
   version="1.1"
   width="120"
   height="120"
   viewBox="0 0 20 20"
   id="tileright"
   inkscape:version="0.91 r13725"
   sodipodi:docname="tileleft.svg">
  <metadata
     id="metadata14">
    <rdf:RDF>
      <cc:Work
         rdf:about="">
        <dc:format>image/svg+xml</dc:format>
        <dc:type
           rdf:resource="http://purl.org/dc/dcmitype/StillImage" />
        <dc:title></dc:title>
      </cc:Work>
    </rdf:RDF>
  </metadata>
  <defs
     id="defs12" />
  <sodipodi:namedview
     pagecolor="#ffffff"
     bordercolor="#666666"
     borderopacity="1"
     objecttolerance="10"
     gridtolerance="10"
     guidetolerance="10"
     inkscape:pageopacity="0"
     inkscape:pageshadow="2"
     inkscape:window-width="976"
     inkscape:window-height="1026"
     id="namedview10"
     showgrid="false"
     inkscape:zoom="16"
     inkscape:cx="-13.337398"
     inkscape:cy="5.3822141"
     inkscape:window-x="0"
     inkscape:window-y="20"
     inkscape:window-maximized="0"
     inkscape:current-layer="tileright">
    <inkscape:grid
       type="xygrid"
       id="grid8074" />
  </sodipodi:namedview>
  <g
     id="icon"
     transform="matrix(-0.4,0,0,0.4,22.8,-2.8)">
    <rect
       x="7"
       y="34.5"
       width="22.5"
       height="17.5"
       id="rect4"
       style="fill:#777777;fill-opacity:1" />
    <rect
       x="7"
       y="12"
       width="22.5"
       height="17.5"
       id="rect6"
       style="fill:#777777;fill-opacity:1" />
    <rect
       x="34.5"
       y="12"
       width="22.5"
       height="40"
       id="rect8"
       style="fill:#777777;fill-opacity:1" />
  </g>
</svg>
