<?xml version="1.0" encoding="UTF-8" standalone="no"?>
<svg
   xmlns:dc="http://purl.org/dc/elements/1.1/"
   xmlns:cc="http://creativecommons.org/ns#"
   xmlns:rdf="http://www.w3.org/1999/02/22-rdf-syntax-ns#"
   xmlns:svg="http://www.w3.org/2000/svg"
   xmlns="http://www.w3.org/2000/svg"
   xmlns:sodipodi="http://sodipodi.sourceforge.net/DTD/sodipodi-0.dtd"
   xmlns:inkscape="http://www.inkscape.org/namespaces/inkscape"
   id="floating"
   height="120"
   width="120"
   viewBox="0 0 20 20"
   version="1.1"
   inkscape:version="0.91 r13725"
   sodipodi:docname="floating.svg">
  <metadata
     id="metadata9">
    <rdf:RDF>
      <cc:Work
         rdf:about="">
        <dc:format>image/svg+xml</dc:format>
        <dc:type
           rdf:resource="http://purl.org/dc/dcmitype/StillImage" />
        <dc:title></dc:title>
      </cc:Work>
    </rdf:RDF>
  </metadata>
  <defs
     id="defs7" />
  <sodipodi:namedview
     pagecolor="#ffffff"
     bordercolor="#666666"
     borderopacity="1"
     objecttolerance="10"
     gridtolerance="10"
     guidetolerance="10"
     inkscape:pageopacity="0"
     inkscape:pageshadow="2"
     inkscape:window-width="976"
     inkscape:window-height="1026"
     id="namedview5"
     showgrid="false"
     inkscape:zoom="14.641379"
     inkscape:cx="12.928771"
     inkscape:cy="13.487845"
     inkscape:window-x="0"
     inkscape:window-y="20"
     inkscape:window-maximized="0"
     inkscape:current-layer="icon" />
  <g
     id="icon"
     transform="matrix(0.39424404,0,0,0.38071066,-2.6138381,-2.1827411)">
    <path
       d="m 38.56,16.24 c -4.71,0 -8.89,2.46 -11.18,6.2 -1.18,-1.18 -2.77,-1.93 -4.58,-1.93 -3.61,0 -6.61,2.9 -6.61,6.51 0,0.35 0.15,0.68 0.2,1.02 -5.39,0.05 -9.76,4.46 -9.76,9.86 0,5.44 4.43,9.86 9.86,9.86 l 33.04,0 c 4.33,0 7.83,-3.5 7.83,-7.83 0,-3.72 -2.62,-6.82 -6.1,-7.63 0.23,-0.98 0.31,-2 0.31,-3.05 0,-7.21 -5.81,-13.01 -13.01,-13.01 l 0,0 z"
       id="cloud"
       inkscape:connector-curvature="0"
       style="fill:#777777;fill-opacity:1" />
  </g>
</svg>
