<?xml version="1.0" encoding="UTF-8" standalone="no"?>
<svg
   xmlns:dc="http://purl.org/dc/elements/1.1/"
   xmlns:cc="http://creativecommons.org/ns#"
   xmlns:rdf="http://www.w3.org/1999/02/22-rdf-syntax-ns#"
   xmlns:svg="http://www.w3.org/2000/svg"
   xmlns="http://www.w3.org/2000/svg"
   xmlns:xlink="http://www.w3.org/1999/xlink"
   xmlns:sodipodi="http://sodipodi.sourceforge.net/DTD/sodipodi-0.dtd"
   xmlns:inkscape="http://www.inkscape.org/namespaces/inkscape"
   version="1.1"
   width="120"
   height="120"
   viewBox="0 0 20 20"
   id="magnify"
   inkscape:version="0.91 r13725"
   sodipodi:docname="magnify.svg">
  <metadata
     id="metadata15">
    <rdf:RDF>
      <cc:Work
         rdf:about="">
        <dc:format>image/svg+xml</dc:format>
        <dc:type
           rdf:resource="http://purl.org/dc/dcmitype/StillImage" />
        <dc:title></dc:title>
      </cc:Work>
    </rdf:RDF>
  </metadata>
  <sodipodi:namedview
     pagecolor="#ffffff"
     bordercolor="#666666"
     borderopacity="1"
     objecttolerance="10"
     gridtolerance="10"
     guidetolerance="10"
     inkscape:pageopacity="0"
     inkscape:pageshadow="2"
     inkscape:window-width="976"
     inkscape:window-height="1026"
     id="namedview13"
     showgrid="false"
     inkscape:zoom="41.412074"
     inkscape:cx="7.8300313"
     inkscape:cy="9.5731537"
     inkscape:window-x="0"
     inkscape:window-y="20"
     inkscape:window-maximized="0"
     inkscape:current-layer="icon" />
  <defs
     id="defs3">
    <path
       id="corner"
       d="M 0,0 23,0 23,7 10,7 10,18 0,18 Z"
       inkscape:connector-curvature="0" />
  </defs>
  <g
     id="icon"
     transform="matrix(0.4,0,0,0.4,-2.8,-2.8)">
    <use
       id="corner-tl"
       xlink:href="#corner"
       x="7"
       y="12"
       width="100%"
       height="100%"
       transform="matrix(0.97826087,0,0,0.97222222,0.15217391,0.3333334)"
       style="fill:#777777;fill-opacity:1" />
    <use
       id="corner-bl"
       xlink:href="#corner"
       x="7"
       y="-52"
       transform="matrix(0.97826087,0,0,-0.97222222,0.15217389,1.4444445)"
       width="100%"
       height="100%"
       style="fill:#777777;fill-opacity:1" />
    <use
       id="corner-tr"
       xlink:href="#corner"
       x="-57"
       y="12"
       transform="matrix(-0.97826087,0,0,0.97222222,1.2391304,0.3333334)"
       width="100%"
       height="100%"
       style="fill:#777777;fill-opacity:1" />
    <use
       id="corner-br"
       xlink:href="#corner"
       x="-57"
       y="-52"
       transform="matrix(-0.97826087,0,0,-0.97222222,1.2391304,1.4444444)"
       width="100%"
       height="100%"
       style="fill:#777777;fill-opacity:1" />
    <rect
       width="22.5"
       height="20"
       x="21"
       y="22"
       id="rect11"
       style="fill:#777777;fill-opacity:1" />
  </g>
</svg>
